{
	"id": "f98baee9-d60d-40fc-ad4a-83302243283f",
	"name": "Addenda API",
	"values": [
		{
			"key": "HOST",
			"value": "http://localhost:2021/",
			"enabled": true
		},
		{
			"key": "CONTENT_TYPE",
			"value": "application/json",
			"enabled": true
		},
		{
			"key": "AUTH",
			"value": "Barer ksdjf",
			"enabled": true
		},
		{
			"key": "USER",
			"value": "users",
			"enabled": true
		},
		{
			"key": "CONTACT",
			"value": "contacts",
			"enabled": true
		}
	],
	"_postman_variable_scope": "environment",
	"_postman_exported_at": "2020-01-12T09:53:56.912Z",
	"_postman_exported_using": "Postman/7.14.0"
}